Blazing Fast Morphological Analyzer based on kiwi(Korean Intelligent Word Identifier) • Elbird
…
With tidytext

suppressMessages(library(dplyr))
library(stringr)
library(tidytext)
library(presidentSpeechKr)

spidx %>% 
  filter(president == "이명박") %>% 
  filter(str_detect(title, "취임사")) %>% 
  pull(link) %>% 
  get_speech(paragraph = T) %>%
  select(paragraph, content) -> tar
tar
#> # A tibble: 62 x 2
#>    paragraph content                                                            
#>        <int> <chr>                                                              
#>  1         1 존경하는 국민 여러분!                                              
#>  2         2 700만 해외동포 여러분!                                             
#>  3         3 이 자리에 참석하신 노무현ㆍ김대중ㆍ김영삼ㆍ전두환 전 대통령, 그리고 이슬람 카리모프 우즈베키스탄 대통령, 엥흐바야르 남…
#>  4         4 저는 오늘 국민 여러분의 부름을 받고 대한민국의 제17대 대통령에 취임합니다. 한없이 자랑스러운 나라, 한없이 위대한 …
#>  5         5 저는 이 자리에서 국민 여러분께 약속드립니다. 국민을 섬겨 나라를 편안하게 하겠습니다. 경제를 발전시키고 사회를 통합하…
#>  6         6 올해로 대한민국 건국 60주년을 맞이합니다. 우리는 잃었던 땅을 되찾아 나라를 세웠고, 그 나라를 지키려고 목숨을 걸었…
#>  7         7 지구 상에서 가장 가난했던 나라가 세계 10위권의 경제 대국이 되었습니다. 도움을 받는 나라에서 베푸는 나라로 올라섰습…
#>  8         8 그러나 우리는 알고 있습니다. 그것은 기적이 아니라 우리가 다 함께 흘린 피와 땀과 눈물의 결정입니다. 그것은 신화가 …
#>  9         9 독립을 위해 목숨을 바친 선열들, 전선에서 산화한 장병들, 뙤약볕과 비바람 속에 땅을 일군 농민들, 밤낮없이 산업현장을…
#> 10        10 장롱 속 금붙이를 들고나와 외환위기에 맞섰던 시민들, 겨울 바닷가에서 기름을 걷고 닦는 자원봉사자들, 그리고 사회 각 …
#> # … with 52 more rows
tar %>% 
  unnest_tokens(
    input = content,
    output = word,
    token = analyze_tt
    )
#> # A tibble: 4,538 x 2
#>    paragraph word     
#>        <int> <chr>    
#>  1         1 존경/nng 
#>  2         1 하/xsv   
#>  3         1 는/etm   
#>  4         1 국민/nng 
#>  5         1 여러분/np
#>  6         1 !/sf     
#>  7         2 700/sn   
#>  8         2 만/nr    
#>  9         2 해외/nng 
#> 10         2 동포/nng 
#> # … with 4,528 more rows
…
