• elbird
…
# 텍스트 데이터는 presidentSpeech 패키지를 사용했습니다.
# install.packages("presidentSpeech", repos = "https://forkonlp.r-universe.dev/")
library(vroom)

tar <- vroom("exam.txt")
#> Rows: 62 Columns: 2
#> ── Column specification ────────────────────────────────────────────────────────
#> Delimiter: "\t"
#> chr (1): content
#> dbl (1): paragraph
#> 
#> ℹ Use `spec()` to retrieve the full column specification for this data.
#> ℹ Specify the column types or set `show_col_types = FALSE` to quiet this message.
tar
#> # A tibble: 62 × 2
#>    paragraph content                                                            
#>        <dbl> <chr>                                                              
#>  1         1 존경하는 국민 여러분!                                              
#>  2         2 700만 해외동포 여러분!                                             
#>  3         3 이 자리에 참석하신 노무현ㆍ김대중ㆍ김영삼ㆍ전두환 전 대통령, 그리… 
#>  4         4 저는 오늘 국민 여러분의 부름을 받고 대한민국의 제17대 대통령에 취… 
#>  5         5 저는 이 자리에서 국민 여러분께 약속드립니다. 국민을 섬겨 나라를 편…
#>  6         6 올해로 대한민국 건국 60주년을 맞이합니다. 우리는 잃었던 땅을 되찾… 
#>  7         7 지구 상에서 가장 가난했던 나라가 세계 10위권의 경제 대국이 되었습… 
#>  8         8 그러나 우리는 알고 있습니다. 그것은 기적이 아니라 우리가 다 함께 … 
#>  9         9 독립을 위해 목숨을 바친 선열들, 전선에서 산화한 장병들, 뙤약볕과 … 
#> 10        10 장롱 속 금붙이를 들고나와 외환위기에 맞섰던 시민들, 겨울 바닷가에… 
#> # … with 52 more rows

tar를 tidytext 패키지의 함수인 unnest_tokens()로 elbird의 tokenize_tidy()를 tokenizer로 사용하는 예시입니다.

library(tidytext)
unnest_tokens(
  tar,
  input = content,
  output = word,
  token = tokenize_tidy
)
#> # A tibble: 2,117 × 2
#>    paragraph word     
#>        <dbl> <chr>    
#>  1         1 존경/nng 
#>  2         1 국민/nng 
#>  3         1 여러분/np
#>  4         2 700/sn   
#>  5         2 해외/nng 
#>  6         2 동포/nng 
#>  7         2 여러분/np
#>  8         3 자리/nng 
#>  9         3 참석/nng 
#> 10         3 시/ep    
#> # … with 2,107 more rows
…
