• elbird
…
설계상 Stopwords 클래스를 사용하도록 되어 있습니다. 그럼 Stopwords 클래스를 만들어보겠습니다.

sw <- Stopwords$new()
sw
#> <stopwords dict>
#>   word count: 106

elbird는 kiwi가 제공하는 내장 불용어 사전을 기본으로 가져옵니다. 모두 106개의 불용어를 가지고 있네요.

불용어가 무엇이 있는지 확인하려면 get() 메소드를 사용하면 됩니다.

sw$get()
#> # A tibble: 106 × 2
#>    form  tag  
#>    <chr> <chr>
#>  1 NA    SF   
#>  2 NA    SP   
#>  3 NA    SS   
#>  4 NA    SE   
#>  5 NA    SO   
#>  6 NA    SW   
#>  7 하    XSV  
#>  8 을    JKO  
#>  9 ᆫ     ETM  
#> 10 다    EF   
#> # … with 96 more rows
#> # ℹ Use `print(n = ...)` to see more rows
…
